[
    {
        "Name": "Fabric API",
        "ID": "P7dR8mSH",
        "Version": "6g95K303",
        "Pin": false,
        "Dependencies": [],
        "Remote": "Modrinth",
        "Loader": "fabric"
    },
    {
        "Name": "MidnightLib",
        "ID": "codAaoxh",
        "Version": "p0LjncVW",
        "Pin": false,
        "Dependencies": [],
        "Remote": "Modrinth",
        "Loader": "fabric"
    },
    {
        "Name": "Cloth Config API",
        "ID": "9s6osm5g",
        "Version": "3Ejdp6VI",
        "Pin": false,
        "Dependencies": [],
        "Remote": "Modrinth",
        "Loader": "fabric"
    },
    {
        "Name": "Sodium",
        "ID": "AANobbMI",
        "Version": "rAfhHfow",
        "Pin": false,
        "Dependencies": [],
        "Remote": "Modrinth",
        "Loader": "fabric"
    },
    {
        "Name": "Puzzles Lib",
        "ID": "QAGBst4M",
        "Version": "hYKHLRZ3",
        "Pin": false,
        "Dependencies": [],
        "Remote": "Modrinth",
        "Loader": "fabric"
    },
    {
        "Name": "Forge Config API Port",
        "ID": "ohNO6lps",
        "Version": "3VCgXZ79",
        "Pin": false,
        "Dependencies": [],
        "Remote": "Modrinth",
        "Loader": "fabric"
    },
    {
        "Name": "Architectury API",
        "ID": "lhGA9TYQ",
        "Version": "cde9Su0w",
        "Pin": false,
        "Dependencies": [],
        "Remote": "Modrinth",
        "Loader": "fabric"
    },
    {
        "Name": "bad packets",
        "ID": "ftdbN0KK",
        "Version": "7Y5NcPRW",
        "Pin": false,
        "Dependencies": [],
        "Remote": "Modrinth",
        "Loader": "fabric"
    },
    {
        "Name": "Iceberg",
        "ID": "5faXoLqX",
        "Version": "qC0waeNX",
        "Pin": false,
        "Dependencies": [],
        "Remote": "Modrinth",
        "Loader": "fabric"
    },
    {
        "Name": "Prism",
        "ID": "1OE8wbN0",
        "Version": "IZHmnX6H",
        "Pin": false,
        "Dependencies": [],
        "Remote": "Modrinth",
        "Loader": "fabric"
    },
    {
        "Name": "YUNG's API",
        "ID": "Ua7DFN59",
        "Version": "pxmQWPn7",
        "Pin": false,
        "Dependencies": [],
        "Remote": "Modrinth",
        "Loader": "fabric"
    }
]