[
    {
        "Name": "Blur+ (Fabric)",
        "ID": "NK39zBp2",
        "Version": "S0scZppQ",
        "Pin": false,
        "Dependencies": [],
        "Remote": "Modrinth",
        "Loader": "fabric"
    },
    {
        "Name": "BetterF3",
        "ID": "8shC1gFX",
        "Version": "h7DgRLng",
        "Pin": false,
        "Dependencies": [],
        "Remote": "Modrinth",
        "Loader": "fabric"
    },
    {
        "Name": "Charmonium",
        "ID": "bpii4Xsa",
        "Version": "qgncfSZo",
        "Pin": false,
        "Dependencies": [],
        "Remote": "Modrinth",
        "Loader": "fabric"
    },
    {
        "Name": "Chunks fade in",
        "ID": "JaNmzvA8",
        "Version": "FHldinWI",
        "Pin": false,
        "Dependencies": [],
        "Remote": "Modrinth",
        "Loader": "fabric"
    },
    {
        "Name": "Continuity",
        "ID": "1IjD5062",
        "Version": "Ql3Ho9eR",
        "Pin": false,
        "Dependencies": [],
        "Remote": "Modrinth",
        "Loader": "fabric"
    },
    {
        "Name": "Eating Animation",
        "ID": "rUgZvGzi",
        "Version": "UulaTOZ0",
        "Pin": false,
        "Dependencies": [],
        "Remote": "Modrinth",
        "Loader": "fabric"
    },
    {
        "Name": "Effective",
        "ID": "00556381",
        "Version": "04036489",
        "Pin": false,
        "Dependencies": [],
        "Remote": "CurseForge",
        "Loader": "fabric"
    },
    {
        "Name": "Pick Up Notifier",
        "ID": "ZX66K16c",
        "Version": "xaPfqdbB",
        "Pin": false,
        "Dependencies": [],
        "Remote": "Modrinth",
        "Loader": "fabric"
    },
    {
        "Name": "Presence Footsteps",
        "ID": "rcTfTZr3",
        "Version": "3fEb2K4u",
        "Pin": false,
        "Dependencies": [],
        "Remote": "Modrinth",
        "Loader": "fabric"
    },
    {
        "Name": "RebindAllTheKeys",
        "ID": "TpKqzzMu",
        "Version": "x9XKFTK6",
        "Pin": false,
        "Dependencies": [],
        "Remote": "Modrinth",
        "Loader": "fabric"
    },
    {
        "Name": "Roughly Enough Items (REI)",
        "ID": "nfn13YXA",
        "Version": "U1vqDeHL",
        "Pin": false,
        "Dependencies": [],
        "Remote": "Modrinth",
        "Loader": "fabric"
    },
    {
        "Name": "WTHIT",
        "ID": "6AQIaxuO",
        "Version": "GQlBEY21",
        "Pin": false,
        "Dependencies": [],
        "Remote": "Modrinth",
        "Loader": "fabric"
    },
    {
        "Name": "Item Highlighter",
        "ID": "cVNW5lr6",
        "Version": "9UOIlrvQ",
        "Pin": false,
        "Dependencies": [],
        "Remote": "Modrinth",
        "Loader": "fabric"
    },
    {
        "Name": "Legendary Tooltips",
        "ID": "atHH8NyV",
        "Version": "QqAHVnpI",
        "Pin": false,
        "Dependencies": [],
        "Remote": "Modrinth",
        "Loader": "fabric"
    },
    {
        "Name": "Mod Menu",
        "ID": "mOgUt4GM",
        "Version": "gSoPJyVn",
        "Pin": false,
        "Dependencies": [],
        "Remote": "Modrinth",
        "Loader": "fabric"
    },
    {
        "Name": "Traveler's Titles",
        "ID": "JtifUr64",
        "Version": "yLYslqqw",
        "Pin": false,
        "Dependencies": [],
        "Remote": "Modrinth",
        "Loader": "fabric"
    }
]