[
    {
        "Name": "Fabric API",
        "ID": "P7dR8mSH",
        "Version": "6g95K303",
        "Pin": false,
        "Dependencies": [],
        "Remote": "Modrinth",
        "Loader": "fabric"
    },
    {
        "Name": "Moonlight Lib",
        "ID": "twkfQtEc",
        "Version": "oi8DYts3",
        "Pin": false,
        "Dependencies": [],
        "Remote": "Modrinth",
        "Loader": "fabric"
    },
    {
        "Name": "Fabric Language Kotlin",
        "ID": "Ha28R6CL",
        "Version": "a7MqDLdC",
        "Pin": false,
        "Dependencies": [],
        "Remote": "Modrinth",
        "Loader": "fabric"
    }
]