[
    {
        "Name": "MidnightLib",
        "ID": "codAaoxh",
        "Version": "p0LjncVW",
        "Pin": false,
        "Dependencies": [],
        "Remote": "Modrinth",
        "Loader": "fabric"
    },
    {
        "Name": "Trinkets",
        "ID": "5aaWibi9",
        "Version": "OLwsMJv4",
        "Pin": false,
        "Dependencies": [],
        "Remote": "Modrinth",
        "Loader": "fabric"
    },
    {
        "Name": "Geckolib",
        "ID": "8BmcQJ2H",
        "Version": "ATPZfRS1",
        "Pin": false,
        "Dependencies": [],
        "Remote": "Modrinth",
        "Loader": "fabric"
    },
    {
        "Name": "Resourceful Lib",
        "ID": "G1hIVOrD",
        "Version": "mxiPijSw",
        "Pin": false,
        "Dependencies": [],
        "Remote": "Modrinth",
        "Loader": "fabric"
    },
    {
        "Name": "Fabric API",
        "ID": "P7dR8mSH",
        "Version": "6g95K303",
        "Pin": false,
        "Dependencies": [],
        "Remote": "Modrinth",
        "Loader": "fabric"
    },
    {
        "Name": "Moonlight Lib",
        "ID": "twkfQtEc",
        "Version": "oi8DYts3",
        "Pin": false,
        "Dependencies": [],
        "Remote": "Modrinth",
        "Loader": "fabric"
    },
    {
        "Name": "Balm",
        "ID": "MBAkmtvl",
        "Version": "c1GjX2k1",
        "Pin": false,
        "Dependencies": [],
        "Remote": "Modrinth",
        "Loader": "fabric"
    },
    {
        "Name": "Forge Config API Port",
        "ID": "ohNO6lps",
        "Version": "3VCgXZ79",
        "Pin": false,
        "Dependencies": [],
        "Remote": "Modrinth",
        "Loader": "fabric"
    }
]