[
    {
        "Name": "Fabric API",
        "ID": "P7dR8mSH",
        "Version": "6g95K303",
        "Pin": false,
        "Dependencies": [],
        "Remote": "Modrinth",
        "Loader": "fabric"
    }
]