[
    {
        "Name": "Fabric Seasons: Delight Compat",
        "ID": "4VYO7ir0",
        "Version": "KIzyS8hk",
        "Pin": false,
        "Dependencies": [],
        "Remote": "Modrinth",
        "Loader": "fabric"
    }
]