[
    {
        "Name": "Create Fabric",
        "ID": "Xbc0uyRg",
        "Version": "ylv5ppFs",
        "Pin": false,
        "Dependencies": [],
        "Remote": "Modrinth",
        "Loader": "fabric"
    },
    {
        "Name": "Delightful Creators  [Fabric]",
        "ID": "jmJ87gsb",
        "Version": "8nGvRGPL",
        "Pin": false,
        "Dependencies": [],
        "Remote": "Modrinth",
        "Loader": "fabric"
    },
    {
        "Name": "Create Slice & Dice",
        "ID": "GmjmRQ0A",
        "Version": "tz8HfyEB",
        "Pin": false,
        "Dependencies": [],
        "Remote": "Modrinth",
        "Loader": "fabric"
    },
    {
        "Name": "Spelunkery",
        "ID": "krskFMfA",
        "Version": "VeOeiwmb",
        "Pin": false,
        "Dependencies": [],
        "Remote": "Modrinth",
        "Loader": "fabric"
    },
    {
        "Name": "Create: Steam 'n' Rails",
        "ID": "ZzjhlDgM",
        "Version": "G5xDUd4X",
        "Pin": false,
        "Dependencies": [],
        "Remote": "Modrinth",
        "Loader": "fabric"
    },
    {
        "Name": "[Deprecated] Farmer's Delight [Fabric]",
        "ID": "4EakbH8e",
        "Version": "vzoppMtR",
        "Pin": false,
        "Dependencies": [],
        "Remote": "Modrinth",
        "Loader": "fabric"
    }
]