[
    {
        "Name": "Moonlight Lib",
        "ID": "twkfQtEc",
        "Version": "oi8DYts3",
        "Pin": false,
        "Dependencies": [],
        "Remote": "Modrinth",
        "Loader": "fabric"
    },
    {
        "Name": "Collective",
        "ID": "e0M1UDsY",
        "Version": "K9Y5Tmuu",
        "Pin": false,
        "Dependencies": [],
        "Remote": "Modrinth",
        "Loader": "fabric"
    },
    {
        "Name": "Balm",
        "ID": "MBAkmtvl",
        "Version": "c1GjX2k1",
        "Pin": false,
        "Dependencies": [],
        "Remote": "Modrinth",
        "Loader": "fabric"
    },
    {
        "Name": "Fabric API",
        "ID": "P7dR8mSH",
        "Version": "6g95K303",
        "Pin": false,
        "Dependencies": [],
        "Remote": "Modrinth",
        "Loader": "fabric"
    },
    {
        "Name": "Cloth Config API",
        "ID": "9s6osm5g",
        "Version": "3Ejdp6VI",
        "Pin": false,
        "Dependencies": [],
        "Remote": "Modrinth",
        "Loader": "fabric"
    },
    {
        "Name": "Ingredient Extension API",
        "ID": "ykQv0RVc",
        "Version": "LcPATGVR",
        "Pin": false,
        "Dependencies": [],
        "Remote": "Modrinth",
        "Loader": "fabric"
    },
    {
        "Name": "Faux Custom Entity Data",
        "ID": "E7ZFR7qk",
        "Version": "rTdiTRZH",
        "Pin": false,
        "Dependencies": [],
        "Remote": "Modrinth",
        "Loader": "fabric"
    }
]